^\\APPSDATA2.FVTC.EDU\USERDATA$\700188958\DOCUMENTS\C++\INCLASSLAB\INCLASSLAB\DEBUG\INCLASSLAB.OBJ|\\APPSDATA2.FVTC.EDU\USERDATA$\700188958\DOCUMENTS\C++\INCLASSLAB\INCLASSLAB\DEBUG\PCH.OBJ
\\APPSDATA2.FVTC.EDU\USERDATA$\700188958\DOCUMENTS\C++\INCLASSLAB\DEBUG\INCLASSLAB.EXE
\\APPSDATA2.FVTC.EDU\USERDATA$\700188958\DOCUMENTS\C++\INCLASSLAB\DEBUG\INCLASSLAB.ILK
\\APPSDATA2.FVTC.EDU\USERDATA$\700188958\DOCUMENTS\C++\INCLASSLAB\DEBUG\INCLASSLAB.PDB
